<?xml version="1.0" encoding="UTF-8"?>
<svg width="86px" height="26px" viewBox="0 0 86 26" version="1.1" xmlns="http://www.w3.org/2000/svg" xmlns:xlink="http://www.w3.org/1999/xlink">
    <!-- Generator: Sketch 53.2 (72643) - https://sketchapp.com -->
    <title>btn_logout_pushed</title>
    <desc>Created with Sketch.</desc>
    <g id="spec" stroke="none" stroke-width="1" fill="none" fill-rule="evenodd">
        <g id="Artboard" transform="translate(-1331.000000, -215.000000)">
            <g id="btn_logout_pushed" transform="translate(1331.000000, 215.000000)">
                <rect id="Rectangle-Copy-65" fill="#FFFFFF" fill-rule="nonzero" x="0" y="0" width="86" height="26" rx="4"></rect>
                <g id="Group-Copy-9" transform="translate(4.000000, 3.000000)" fill="#000000">
                    <polygon id="Fill-58" points="0 18.298 9.146 20.485 9.146 18.298 9.146 2.187 9.146 6.39488462e-14 0 2.187"></polygon>
                    <polygon id="Fill-59" points="13.161 7.656 14.504 7.656 14.504 2 10 2 10 3.342 13.161 3.342"></polygon>
                    <polygon id="Fill-60" points="13.161 17.313 10 17.313 10 18.656 14.504 18.656 14.504 13 13.161 13"></polygon>
                    <polygon id="Fill-61" points="19.351 10.456 14.928 7 14.928 8.728 11 8.728 11 12.184 14.928 12.184 14.928 13.912"></polygon>
                </g>
                <path d="M29.134,7.27 L30.926,7.27 L30.926,15.852 L35.532,15.852 L35.532,17.364 L29.134,17.364 L29.134,7.27 Z M40.068,15.936 C41.118,15.936 41.902,15.376 41.902,13.906 L41.902,13.052 C41.902,11.582 41.174,11.022 40.068,11.022 C38.962,11.022 38.234,11.582 38.234,13.052 L38.234,13.906 C38.234,15.376 39.018,15.936 40.068,15.936 Z M40.068,17.476 C37.884,17.476 36.456,16.188 36.456,13.934 L36.456,13.024 C36.456,10.756 37.884,9.482 40.068,9.482 C42.252,9.482 43.68,10.756 43.68,13.024 L43.68,13.934 C43.68,16.188 42.252,17.476 40.068,17.476 Z M50.106,17.28 L50.106,16.328 L50.078,16.328 C49.672,17.07 48.846,17.336 47.922,17.336 C45.948,17.336 44.968,16.132 44.968,14.046 L44.968,12.828 C44.968,10.756 46.186,9.482 48.048,9.482 C49.252,9.482 49.896,9.986 50.134,10.322 L50.148,10.322 L50.148,9.65 L51.842,9.65 L51.842,17.294 C51.842,19.436 50.694,20.486 48.174,20.486 C47.208,20.486 46.158,20.136 45.528,19.646 L46.326,18.274 C46.634,18.54 47.474,18.932 48.202,18.932 C49.448,18.932 50.106,18.414 50.106,17.28 Z M46.704,13.052 L46.704,13.78 C46.704,15.082 47.25,15.838 48.272,15.838 C49.434,15.838 50.106,14.998 50.106,13.948 L50.106,12.52 C50.106,11.806 49.56,10.994 48.342,10.994 C47.222,10.994 46.704,11.764 46.704,13.052 Z M60.648,15.936 C61.698,15.936 62.482,15.376 62.482,13.906 L62.482,13.052 C62.482,11.582 61.754,11.022 60.648,11.022 C59.542,11.022 58.814,11.582 58.814,13.052 L58.814,13.906 C58.814,15.376 59.598,15.936 60.648,15.936 Z M60.648,17.476 C58.464,17.476 57.036,16.188 57.036,13.934 L57.036,13.024 C57.036,10.756 58.464,9.482 60.648,9.482 C62.832,9.482 64.26,10.756 64.26,13.024 L64.26,13.934 C64.26,16.188 62.832,17.476 60.648,17.476 Z M68.558,17.49 C66.948,17.49 65.884,16.51 65.884,14.634 L65.884,9.65 L67.648,9.65 L67.648,14.256 C67.648,15.6 68.278,15.95 69.104,15.95 C69.804,15.95 70.742,15.53 70.742,14.144 L70.742,9.65 L72.506,9.65 L72.506,17.364 L70.826,17.364 L70.826,16.44 L70.798,16.44 C70.364,17.168 69.398,17.49 68.558,17.49 Z M75.096,15.18 L75.096,11.106 L73.864,11.106 L73.864,9.65 L75.096,9.65 L75.096,7.676 L76.86,7.676 L76.86,9.65 L78.806,9.65 L78.806,11.106 L76.86,11.106 L76.86,15.166 C76.86,15.824 77.154,15.964 77.616,15.964 C77.966,15.964 78.302,15.908 78.708,15.74 L78.988,17.154 C78.666,17.294 78.092,17.476 77.406,17.476 C75.642,17.476 75.096,16.622 75.096,15.18 Z" id="Logout" fill="#000000" fill-rule="nonzero"></path>
            </g>
        </g>
    </g>
</svg>