<?xml version="1.0" encoding="UTF-8"?>
<svg width="32px" height="32px" viewBox="0 0 32 32" version="1.1" xmlns="http://www.w3.org/2000/svg" xmlns:xlink="http://www.w3.org/1999/xlink">
    <!-- Generator: Sketch 53.2 (72643) - https://sketchapp.com -->
    <title>btn_scroll_up_default</title>
    <desc>Created with Sketch.</desc>
    <g id="spec" stroke="none" stroke-width="1" fill="none" fill-rule="evenodd">
        <g id="Artboard" transform="translate(-1694.000000, -1012.000000)">
            <g id="btn_scroll_up_default" transform="translate(1694.000000, 1012.000000)">
                <g id="Group-8-Copy" transform="translate(16.000000, 16.000000) scale(1, -1) translate(-16.000000, -16.000000) ">
                    <rect id="Rectangle-Copy-16" fill="#f3f3f4" x="0" y="0" width="32" height="32" rx="2"></rect>
                    <polygon id="Triangle-Copy-3" fill="#000000" transform="translate(16.000000, 17.000000) rotate(-180.000000) translate(-16.000000, -17.000000) " points="16 13 22 21 10 21"></polygon>
                </g>
            </g>
        </g>
    </g>
</svg>