<?xml version="1.0" encoding="UTF-8"?>
<svg width="120px" height="120px" viewBox="0 0 120 120" version="1.1" xmlns="http://www.w3.org/2000/svg" xmlns:xlink="http://www.w3.org/1999/xlink">
    <!-- Generator: Sketch 53.2 (72643) - https://sketchapp.com -->
    <title>btn_app_kp_pushed</title>
    <desc>Created with Sketch.</desc>
    <g id="spec" stroke="none" stroke-width="1" fill="none" fill-rule="evenodd">
        <g id="Artboard" transform="translate(-461.000000, -1216.000000)">
            <g id="btn_app_kp_pushed" transform="translate(461.000000, 1216.000000)">
                <rect id="Rectangle-Copy-91" fill="#000000" x="0" y="0" width="120" height="120" rx="6"></rect>
                <rect id="Rectangle-Copy-91" fill="#000000" x="0" y="0" width="120" height="120" rx="6"></rect>
                <g id="Group-64" transform="translate(22.000000, 15.000000)" fill-rule="nonzero">
                    <g id="Group-11-Copy-2" transform="translate(-0.000000, 0.000000)">
                        <path d="M25.4855053,36.3223631 L33.1855346,28.6223338 L33.1740898,28.6006005 C32.7747038,27.842181 32.5666667,27.0007431 32.5666667,26.1346001 C32.5666667,23.6122168 34.3462004,21.4400609 36.8066311,20.9406198 L36.8333333,20.9351996 L36.8333333,10.1339921 L36.7978107,10.1363302 C28.390538,10.6897004 21.8333333,17.6893746 21.8333333,26.1346001 C21.8333333,29.8652035 23.1127812,33.4286779 25.4621759,36.2939115 L25.4855053,36.3223631 Z" id="Path" stroke="#81848B"></path>
                        <path d="M38.4,9.6 L38.9683618,9.63740981 C47.6263034,10.2072791 54.4,17.4138036 54.4,26.1346001 C54.4,30.1943876 52.930744,34.027786 50.310892,37.0203523 L49.935483,37.4491691 L41.6310355,29.1447216 L41.8717269,28.7813152 C42.3875744,28.0024661 42.6666667,27.0899672 42.6666667,26.1346001 C42.6666667,23.8415278 41.0462751,21.8810676 38.8272362,21.4306265 L38.4,21.3439021 L38.4,9.6 Z" id="Path" fill="#6699F0"></path>
                        <path d="M34.9874665,30.5392639 L27.3860431,38.1406872 L27.4112488,38.1642296 C30.3822528,40.9391708 34.2641127,42.4778904 38.3528636,42.4778904 C42.2625471,42.4778904 45.9859036,41.0718466 48.909267,38.5125786 L48.936068,38.4891155 L41.2983861,30.8514336 L41.2756732,30.8664768 C40.4098569,31.4399244 39.4003406,31.744557 38.3528636,31.744557 C37.1269094,31.744557 35.9554172,31.3266171 35.0108012,30.5582449 L34.9874665,30.5392639 Z" id="Combined-Shape" stroke="#81848B"></path>
                        <rect id="Rectangle" stroke="#81848B" stroke-width="2" x="1" y="1" width="72.6666667" height="83.3333333" rx="6"></rect>
                        <path d="M14.9333333,54.9333333 L59.7333333,54.9333333" id="Path-6" stroke="#81848B" stroke-width="2"></path>
                        <path d="M14.9333333,64.5333333 L51.2,64.5333333" id="Path-6-Copy" stroke="#81848B" stroke-width="2"></path>
                        <path d="M14.9333333,74.1333333 L59.7333333,74.1333333" id="Path-6-Copy-2" stroke="#81848B" stroke-width="2"></path>
                    </g>
                    <g id="Group-63" transform="translate(-0.000000, 0.000000)" stroke="#FFFFFF">
                        <path d="M25.4855053,36.3223631 L33.1855346,28.6223338 L33.1740898,28.6006005 C32.7747038,27.842181 32.5666667,27.0007431 32.5666667,26.1346001 C32.5666667,23.6122168 34.3462004,21.4400609 36.8066311,20.9406198 L36.8333333,20.9351996 L36.8333333,10.1339921 L36.7978107,10.1363302 C28.390538,10.6897004 21.8333333,17.6893746 21.8333333,26.1346001 C21.8333333,29.8652035 23.1127812,33.4286779 25.4621759,36.2939115 L25.4855053,36.3223631 Z" id="Path"></path>
                        <path d="M34.9874665,30.5392639 L27.3860431,38.1406872 L27.4112488,38.1642296 C30.3822528,40.9391708 34.2641127,42.4778904 38.3528636,42.4778904 C42.2625471,42.4778904 45.9859036,41.0718466 48.909267,38.5125786 L48.936068,38.4891155 L41.2983861,30.8514336 L41.2756732,30.8664768 C40.4098569,31.4399244 39.4003406,31.744557 38.3528636,31.744557 C37.1269094,31.744557 35.9554172,31.3266171 35.0108012,30.5582449 L34.9874665,30.5392639 Z" id="Combined-Shape"></path>
                        <rect id="Rectangle" stroke-width="2" x="1" y="1" width="72.6666667" height="83.3333333" rx="6"></rect>
                        <path d="M14.9333333,54.9333333 L59.7333333,54.9333333" id="Path-6" stroke-width="2"></path>
                        <path d="M14.9333333,64.5333333 L51.2,64.5333333" id="Path-6-Copy" stroke-width="2"></path>
                        <path d="M14.9333333,74.1333333 L59.7333333,74.1333333" id="Path-6-Copy-2" stroke-width="2"></path>
                    </g>
                    <path d="M38.4,9.6 L38.9683618,9.63740981 C47.6263034,10.2072791 54.4,17.4138036 54.4,26.1346001 C54.4,30.1943876 52.930744,34.027786 50.310892,37.0203523 L49.935483,37.4491691 L41.6310355,29.1447216 L41.8717269,28.7813152 C42.3875744,28.0024661 42.6666667,27.0899672 42.6666667,26.1346001 C42.6666667,23.8415278 41.0462751,21.8810676 38.8272362,21.4306265 L38.4,21.3439021 L38.4,9.6 Z" id="Path" fill="#FFFFFF"></path>
                </g>
            </g>
        </g>
    </g>
</svg>