<?xml version="1.0" encoding="UTF-8"?>
<svg width="120px" height="120px" viewBox="0 0 120 120" version="1.1" xmlns="http://www.w3.org/2000/svg" xmlns:xlink="http://www.w3.org/1999/xlink">
    <!-- Generator: Sketch 53.2 (72643) - https://sketchapp.com -->
    <title>btn_app_maintenance_pushed</title>
    <desc>Created with Sketch.</desc>
    <g id="spec" stroke="none" stroke-width="1" fill="none" fill-rule="evenodd">
        <g id="Artboard" transform="translate(-1001.000000, -1216.000000)">
            <g id="btn_app_maintenance_pushed" transform="translate(1001.000000, 1216.000000)">
                <rect id="Rectangle-Copy-97" fill="#000000" x="0" y="0" width="120" height="120" rx="6"></rect>
                <g id="Group-73" transform="translate(23.000000, 17.000000)" fill-rule="nonzero" stroke="#FFFFFF" stroke-width="2">
                    <g id="Group-72" transform="translate(0.000000, -0.000000)">
                        <path d="M65.3992688,23.6542183 C64.8469841,23.6542183 64.3992688,24.1019336 64.3992688,24.6542183 L64.3992688,35.5875517 C64.3992688,36.1398364 64.8469841,36.5875517 65.3992688,36.5875517 L77.3992688,36.5875517 C77.9515536,36.5875517 78.3992688,36.1398364 78.3992688,35.5875517 L78.3992688,24.6542183 C78.3992688,24.1019336 77.9515536,23.6542183 77.3992688,23.6542183 L65.3992688,23.6542183 Z" id="Rectangle" transform="translate(71.399269, 30.120885) rotate(-315.000000) translate(-71.399269, -30.120885) "></path>
                        <path d="M45.2119325,15 L59.1659644,15 L59.1659644,5.26666667 L55.8992977,5.26666667 C50.3086323,5.26666667 45.7162904,9.54099792 45.2119325,15 Z" id="Rectangle-Copy-18" transform="translate(52.165964, 10.133333) rotate(-315.000000) translate(-52.165964, -10.133333) "></path>
                        <path d="M14.8,42.3763924 C14.2477153,42.3763924 13.8,42.8241077 13.8,43.3763924 L13.8,80.9763924 C13.8,81.5286772 14.2477153,81.9763924 14.8,81.9763924 L24.6666667,81.9763924 C25.2189514,81.9763924 25.6666667,81.5286772 25.6666667,80.9763924 L25.6666667,43.3763924 C25.6666667,42.8241077 25.2189514,42.3763924 24.6666667,42.3763924 L14.8,42.3763924 Z" id="Rectangle" transform="translate(19.733333, 62.176392) rotate(-315.000000) translate(-19.733333, -62.176392) "></path>
                        <path d="M47.1698893,53.9398364 L52.636556,53.9398364 L52.636556,21.3027361 L53.0973668,21.0077126 C54.7913809,19.9231595 55.836556,18.054905 55.836556,16.0065031 C55.836556,12.7296136 53.1801122,10.0731698 49.9032227,10.0731698 C46.6263331,10.0731698 43.9698893,12.7296136 43.9698893,16.0065031 C43.9698893,18.054905 45.0150644,19.9231595 46.7090785,21.0077126 L47.1698893,21.3027361 L47.1698893,53.9398364 Z" id="Combined-Shape" transform="translate(49.903223, 32.006503) rotate(-315.000000) translate(-49.903223, -32.006503) "></path>
                    </g>
                    <path d="M39.2819288,33.0601636 L30.9852093,41.3568831 L22.6193271,32.991001 C17.9575709,34.5834113 12.5892643,33.5203995 8.87082734,29.8019625 C7.2860001,28.2171353 6.18353928,26.332604 5.56344488,24.3308076 L13.1684623,26.3685633 C15.3023267,26.9403306 17.4956745,25.6740006 18.0674418,23.5401362 L19.3097732,18.9036922 C19.8815405,16.7698278 18.6152105,14.57648 16.4813461,14.0047127 L8.1175066,11.7636287 C8.35517284,11.4832278 8.60627976,11.2103292 8.87082734,10.9457817 C14.0778179,5.7387911 22.5200176,5.7387911 27.7270082,10.9457817 C31.4454451,14.6642186 32.508457,20.0325253 30.9160437,24.6942785 L39.2819288,33.0601636 Z M49.0871429,42.8653776 L59.9875896,53.7658243 C64.6493458,52.1734141 70.0176524,53.2364259 73.7360894,56.9548629 C75.4430858,58.6618593 76.5904813,60.7165472 77.1782759,62.8909607 L68.771991,60.6385034 C66.6381266,60.0667362 64.4447788,61.3330661 63.8730115,63.4669305 L62.6306801,68.1033745 C62.0589129,70.2372389 63.3252428,72.4305867 65.4591072,73.002354 L74.1847363,75.3403793 C74.0397485,75.4999895 73.8901995,75.6569336 73.7360894,75.8110437 C68.5290988,81.0180343 60.0868991,81.0180343 54.8799086,75.8110437 C51.1614716,72.0926067 50.0984597,66.7243001 51.690873,62.0625469 L40.7904233,51.1620972 L49.0871429,42.8653776 Z" id="Combined-Shape"></path>
                </g>
            </g>
        </g>
    </g>
</svg>