<?xml version="1.0" encoding="UTF-8"?>
<svg width="226px" height="200px" viewBox="0 0 226 200" version="1.1" xmlns="http://www.w3.org/2000/svg" xmlns:xlink="http://www.w3.org/1999/xlink">
    <!-- Generator: Sketch 53.2 (72643) - https://sketchapp.com -->
    <title>bg_info_board_daily</title>
    <desc>Created with Sketch.</desc>
    <defs>
        <rect id="path-1" x="950" y="332" width="218" height="192" rx="4"></rect>
        <filter x="-3.2%" y="-2.6%" width="106.4%" height="107.3%" filterUnits="objectBoundingBox" id="filter-2">
            <feOffset dx="0" dy="2" in="SourceAlpha" result="shadowOffsetOuter1"></feOffset>
            <feGaussianBlur stdDeviation="2" in="shadowOffsetOuter1" result="shadowBlurOuter1"></feGaussianBlur>
            <feColorMatrix values="0 0 0 0 0   0 0 0 0 0   0 0 0 0 0  0 0 0 0.5 0" type="matrix" in="shadowBlurOuter1"></feColorMatrix>
        </filter>
    </defs>
    <g id="spec" stroke="none" stroke-width="1" fill="none" fill-rule="evenodd">
        <g id="Artboard" transform="translate(-946.000000, -330.000000)" fill-rule="nonzero">
            <g id="bg_info_board_daily">
                <use fill="black" fill-opacity="1" filter="url(#filter-2)" xlink:href="#path-1"></use>
                <use fill="#6699F0" xlink:href="#path-1"></use>
            </g>
        </g>
    </g>
</svg>