<?xml version="1.0" encoding="UTF-8"?>
<svg width="240px" height="88px" viewBox="0 0 240 88" version="1.1" xmlns="http://www.w3.org/2000/svg" xmlns:xlink="http://www.w3.org/1999/xlink">
    <!-- Generator: Sketch 53.2 (72643) - https://sketchapp.com -->
    <title>daily_status_incycle</title>
    <desc>Created with Sketch.</desc>
    <g id="spec" stroke="none" stroke-width="1" fill="none" fill-rule="evenodd">
        <g id="Artboard" transform="translate(-1297.000000, -405.000000)">
            <g id="daily_status_incycle" transform="translate(1297.000000, 405.000000)">
                <rect id="Rectangle-Copy-89" fill="#2B2D32" x="0" y="0" width="240" height="88" rx="2"></rect>
                <path d="M18,20.5 L56.5,20.5" id="Path-14-Copy-28" stroke="#AED543" stroke-width="6" stroke-linecap="round" stroke-linejoin="bevel"></path>
                <path d="M39.5195312,65.5 L55.5,65.5" id="Path-14-Copy-29" stroke="#3D8522" stroke-width="6" stroke-linecap="round" stroke-linejoin="bevel"></path>
            </g>
        </g>
    </g>
</svg>